0.2531852158879228 
0.27828530262998386 
0.35361431562867596 
0.5524486730164481 
0.35808309520258746 
0.4484259827872786 
0.3859176040135923 
0.3173948019166015 
0.322795800421917 
0.3639336734971264 
0.40609843984056854 
0.5614852547250448 
0.4055414037396208 
0.4652502312629087 
0.4402734314448315
0.4080465097067604 
0.3644468657848247
0.34336427271693043
0.4098825138921538 
0.4506012134069149
0.36789831134034856 
0.43071867243032713 
0.41261476498666744 
0.3651225869985386 
