8.476804975,10.40773804,11.7930143,7.589949229,10.68457899,11.12025233,10.11416615,8.585966497,9.837703801,11.48441151,10.96356316,7.841392228,10.39804358,11.36489835,9.096445018,10.29497081,8.300201204,11.28527836,11.56604134,6.587570734,12.86619717,6.873128831,13.52850145,9.616918613,7.656052747,12.34890596,9.733020862,9.355241778,8.960308825,10.61589968,10.30618436,8.578309235,10.14988499,10.159393,9.888577365,9.63896298,10.29234512
10.38287239,10.65876808,10.96881134,10.12345164,10.87000208,10.74181415,10.79575552,10.43923253,10.45115401,11.02022814,10.81546156,10.13183709,10.84970828,10.8041903,10.3651058,10.61308571,10.52917267,10.84793988,10.87156119,9.893836554,11.17974495,10.0998248,11.43043966,10.35677956,10.2637209,11.10667424,10.61192529,10.35735117,10.34355012,10.62397662,10.4055966,10.36762268,10.67120118,10.52948636,10.58869909,10.43969455,10.61106052
10.15761085,10.39317269,10.75352979,9.887474026,10.63431986,10.52739821,10.5682971,10.20679752,10.1907676,10.79384835,10.61914773,9.850521177,10.60679608,10.55548208,10.16689831,10.32612633,10.2827717,10.62151073,10.62138707,9.692822432,10.90960258,9.930241773,11.15239708,10.08904671,10.03591964,10.84499607,10.40079227,10.10719299,10.05288424,10.37505829,10.16058713,10.17280058,10.44188346,10.30586881,10.31857244,10.19112638,10.39269118
10.25536691,10.49860842,10.83468713,9.993164109,10.73412807,10.6157854,10.65914003,10.32318822,10.28780406,10.89450974,10.6876506,9.966822773,10.71847569,10.659187,10.25853749,10.43938622,10.40195833,10.73698462,10.71695275,9.80938418,11.02591252,10.02490147,11.28754569,10.20726219,10.1579631,10.94425569,10.50634945,10.20221802,10.1858923,10.46991377,10.2471465,10.26281551,10.55094572,10.36652101,10.44371527,10.28306932,10.47702995
10.18583232,10.41501231,10.79273934,9.871827411,10.65212608,10.54184687,10.57861639,10.23235681,10.19080874,10.82880918,10.65390854,9.86359601,10.61296734,10.58220551,10.16652159,10.32870797,10.28850941,10.62052095,10.64549417,9.639963517,10.93740576,9.927915808,11.18505788,10.10120658,10.05275702,10.88947343,10.42663287,10.14839494,10.05715729,10.41872816,10.19619018,10.17597015,10.48297088,10.3026471,10.35441809,10.19871591,10.42290362
10.30182606,10.54866368,10.88762695,10.02207315,10.77387557,10.65320077,10.70746257,10.36101319,10.332018,10.93130774,10.76079817,10.01130764,10.74513341,10.69586393,10.28948444,10.49000113,10.42466765,10.76838498,10.75873944,9.809853453,11.06387906,10.05144516,11.30067938,10.25578177,10.17436231,10.99956179,10.54141283,10.26400485,10.21622368,10.53863719,10.31880243,10.29940546,10.59450604,10.43250692,10.47589634,10.31731732,10.5132175
10.19886884,10.45340737,10.81023124,9.915751816,10.68264105,10.56570012,10.59813001,10.2561594,10.23385816,10.84866356,10.6520621,9.898351419,10.64247249,10.62260685,10.17771045,10.36379433,10.31941907,10.65411719,10.67307728,9.681155013,10.96735183,9.947127151,11.21514797,10.1311951,10.06470028,10.90274087,10.42962836,10.17062748,10.08920704,10.44056426,10.22211164,10.1871887,10.4946576,10.32163368,10.37527666,10.22061354,10.46416566
10.04018969,10.27752476,10.66646777,9.737151226,10.51897012,10.4320456,10.45211145,10.083589,10.05576967,10.68869119,10.5053642,9.727666396,10.4768534,10.43524015,10.01731053,10.17815067,10.15158072,10.49713529,10.51334494,9.501403494,10.80756093,9.78462376,11.06160282,9.940471953,9.881410251,10.74402458,10.27380609,9.976329214,9.880492235,10.27623087,10.05183422,10.03087448,10.31929116,10.15117702,10.19311328,10.06561877,10.31946971
